IS415 - Take-home Exercise 2
…
  return(final_file)
}

Referencing senior - Megan’s - work  here  and using  lapply function, aspatial files are fed into the pre-processing function and outputs are stored in the variable dflist.

fileslist <-list.files(path = "data/aspatial", pattern = "*.xlsx", full.names=TRUE)

dflist <- lapply(seq_along(fileslist), function(x) aspatialfunc(fileslist[x]))

Checking dflist

head(dflist)

[[1]]
# A tibble: 267 × 7
   `KODE KELURAHAN` `WILAYAH KOTA`  KECAMATAN      KELUR…¹ SASARAN BELUM…² date 
   <chr>            <chr>           <chr>          <chr>     <dbl>   <dbl> <chr>
 1 3172051003       JAKARTA UTARA   PADEMANGAN     ANCOL     23947    4592 27 F…
 2 3173041007       JAKARTA BARAT   TAMBORA        ANGKE     29381    5319 27 F…
 3 3175041005       JAKARTA TIMUR   KRAMAT JATI    BALE K…   29074    5903 27 F…
 4 3175031003       JAKARTA TIMUR   JATINEGARA     BALI M…    9752    1649 27 F…
 5 3175101006       JAKARTA TIMUR   CIPAYUNG       BAMBU …   26285    4030 27 F…
 6 3174031002       JAKARTA SELATAN MAMPANG PRAPA… BANGKA    21566    3950 27 F…
 7 3175051002       JAKARTA TIMUR   PASAR REBO     BARU      23886    3344 27 F…
 8 3175041004       JAKARTA TIMUR   KRAMAT JATI    BATU A…   47898    9382 27 F…
 9 3171071002       JAKARTA PUSAT   TANAH ABANG    BENDUN…   21494    3772 27 F…
10 3175031002       JAKARTA TIMUR   JATINEGARA     BIDARA…   36689    7530 27 F…
# … with 257 more rows, and abbreviated variable names ¹​KELURAHAN,
#   ²​`BELUM VAKSIN`

[[2]]
# A tibble: 267 × 7
   `KODE KELURAHAN` `WILAYAH KOTA`  KECAMATAN      KELUR…¹ SASARAN BELUM…² date 
   <chr>            <chr>           <chr>          <chr>     <dbl>   <dbl> <chr>
 1 3172051003       JAKARTA UTARA   PADEMANGAN     ANCOL     23947    4449 30 A…
 2 3173041007       JAKARTA BARAT   TAMBORA        ANGKE     29381    5101 30 A…
 3 3175041005       JAKARTA TIMUR   KRAMAT JATI    BALE K…   29074    5699 30 A…
 4 3175031003       JAKARTA TIMUR   JATINEGARA     BALI M…    9752    1598 30 A…
 5 3175101006       JAKARTA TIMUR   CIPAYUNG       BAMBU …   26285    3857 30 A…
 6 3174031002       JAKARTA SELATAN MAMPANG PRAPA… BANGKA    21566    3818 30 A…
 7 3175051002       JAKARTA TIMUR   PASAR REBO     BARU      23886    3160 30 A…
 8 3175041004       JAKARTA TIMUR   KRAMAT JATI    BATU A…   47898    9041 30 A…
 9 3171071002       JAKARTA PUSAT   TANAH ABANG    BENDUN…   21494    3627 30 A…
10 3175031002       JAKARTA TIMUR   JATINEGARA     BIDARA…   36689    7172 30 A…
# … with 257 more rows, and abbreviated variable names ¹​KELURAHAN,
#   ²​`BELUM VAKSIN`

[[3]]
# A tibble: 267 × 7
   `KODE KELURAHAN` `WILAYAH KOTA`  KECAMATAN      KELUR…¹ SASARAN BELUM…² date 
   <chr>            <chr>           <chr>          <chr>     <dbl>   <dbl> <chr>
 1 3172051003       JAKARTA UTARA   PADEMANGAN     ANCOL     23947    4402 30 J…
 2 3173041007       JAKARTA BARAT   TAMBORA        ANGKE     29381    5041 30 J…
 3 3175041005       JAKARTA TIMUR   KRAMAT JATI    BALE K…   29074    5632 30 J…
 4 3175031003       JAKARTA TIMUR   JATINEGARA     BALI M…    9752    1576 30 J…
 5 3175101006       JAKARTA TIMUR   CIPAYUNG       BAMBU …   26285    3791 30 J…
 6 3174031002       JAKARTA SELATAN MAMPANG PRAPA… BANGKA    21566    3778 30 J…
 7 3175051002       JAKARTA TIMUR   PASAR REBO     BARU      23886    3110 30 J…
 8 3175041004       JAKARTA TIMUR   KRAMAT JATI    BATU A…   47898    8917 30 J…
 9 3171071002       JAKARTA PUSAT   TANAH ABANG    BENDUN…   21494    3580 30 J…
10 3175031002       JAKARTA TIMUR   JATINEGARA     BIDARA…   36689    7071 30 J…
# … with 257 more rows, and abbreviated variable names ¹​KELURAHAN,
#   ²​`BELUM VAKSIN`

[[4]]
# A tibble: 267 × 7
   `KODE KELURAHAN` `WILAYAH KOTA`  KECAMATAN      KELUR…¹ SASARAN BELUM…² date 
   <chr>            <chr>           <chr>          <chr>     <dbl>   <dbl> <chr>
 1 3172051003       JAKARTA UTARA   PADEMANGAN     ANCOL     23947    5527 30 N…
 2 3173041007       JAKARTA BARAT   TAMBORA        ANGKE     29381    5986 30 N…
 3 3175041005       JAKARTA TIMUR   KRAMAT JATI    BALE K…   29074    6802 30 N…
 4 3175031003       JAKARTA TIMUR   JATINEGARA     BALI M…    9752    1920 30 N…
 5 3175101006       JAKARTA TIMUR   CIPAYUNG       BAMBU …   26285    4612 30 N…
 6 3174031002       JAKARTA SELATAN MAMPANG PRAPA… BANGKA    21566    4346 30 N…
 7 3175051002       JAKARTA TIMUR   PASAR REBO     BARU      23886    3776 30 N…
 8 3175041004       JAKARTA TIMUR   KRAMAT JATI    BATU A…   47898   10985 30 N…
 9 3171071002       JAKARTA PUSAT   TANAH ABANG    BENDUN…   21494    4187 30 N…
10 3175031002       JAKARTA TIMUR   JATINEGARA     BIDARA…   36689    8447 30 N…
# … with 257 more rows, and abbreviated variable names ¹​KELURAHAN,
#   ²​`BELUM VAKSIN`

[[5]]
# A tibble: 267 × 7
   `KODE KELURAHAN` `WILAYAH KOTA`  KECAMATAN      KELUR…¹ SASARAN BELUM…² date 
   <chr>            <chr>           <chr>          <chr>     <dbl>   <dbl> <chr>
 1 3172051003       JAKARTA UTARA   PADEMANGAN     ANCOL     23947    6688 30 S…
 2 3173041007       JAKARTA BARAT   TAMBORA        ANGKE     29381    7581 30 S…
 3 3175041005       JAKARTA TIMUR   KRAMAT JATI    BALE K…   29074    8708 30 S…
 4 3175031003       JAKARTA TIMUR   JATINEGARA     BALI M…    9752    2517 30 S…
 5 3175101006       JAKARTA TIMUR   CIPAYUNG       BAMBU …   26285    6252 30 S…
 6 3174031002       JAKARTA SELATAN MAMPANG PRAPA… BANGKA    21566    5785 30 S…
 7 3175051002       JAKARTA TIMUR   PASAR REBO     BARU      23886    4899 30 S…
 8 3175041004       JAKARTA TIMUR   KRAMAT JATI    BATU A…   47898   14105 30 S…
 9 3171071002       JAKARTA PUSAT   TANAH ABANG    BENDUN…   21494    5239 30 S…
10 3175031002       JAKARTA TIMUR   JATINEGARA     BIDARA…   36689   10626 30 S…
# … with 257 more rows, and abbreviated variable names ¹​KELURAHAN,
#   ²​`BELUM VAKSIN`

[[6]]
# A tibble: 267 × 7
   `KODE KELURAHAN` `WILAYAH KOTA`  KECAMATAN      KELUR…¹ SASARAN BELUM…² date 
   <chr>            <chr>           <chr>          <chr>     <dbl>   <dbl> <chr>
 1 3172051003       JAKARTA UTARA   PADEMANGAN     ANCOL     23947    9191 31 A…
 2 3173041007       JAKARTA BARAT   TAMBORA        ANGKE     29381   10400 31 A…
 3 3175041005       JAKARTA TIMUR   KRAMAT JATI    BALE K…   29074   12510 31 A…
 4 3175031003       JAKARTA TIMUR   JATINEGARA     BALI M…    9752    3704 31 A…
 5 3175101006       JAKARTA TIMUR   CIPAYUNG       BAMBU …   26285    9416 31 A…
 6 3174031002       JAKARTA SELATAN MAMPANG PRAPA… BANGKA    21566    8345 31 A…
 7 3175051002       JAKARTA TIMUR   PASAR REBO     BARU      23886    7751 31 A…
 8 3175041004       JAKARTA TIMUR   KRAMAT JATI    BATU A…   47898   19908 31 A…
 9 3171071002       JAKARTA PUSAT   TANAH ABANG    BENDUN…   21494    8033 31 A…
10 3175031002       JAKARTA TIMUR   JATINEGARA     BIDARA…   36689   15563 31 A…
# … with 257 more rows, and abbreviated variable names ¹​KELURAHAN,
#   ²​`BELUM VAKSIN`
…
