IS415 - Take Home Exercise 3
…
[1] 61875

nrow(resale_all[resale_all$flat_type == '5 ROOM',])

[1] 37475

resale2122_5r <- filter(resale2122, flat_type == '5 ROOM')

geocode resale data using tidygeocoder package https://cran.r-project.org/web/packages/tidygeocoder/readme/README.html

geocoded <- resale2122_5r %>%
  geocode(street_name, method = 'osm', lat = latitude , long = longitude)
geocoded

# A tibble: 14,519 × 13
   month   town    flat_…¹ block stree…² store…³ floor…⁴ flat_…⁵ lease…⁶ remai…⁷
   <chr>   <chr>   <chr>   <chr> <chr>   <chr>     <dbl> <chr>     <dbl> <chr>  
 1 2021-01 ANG MO… 5 ROOM  551   ANG MO… 01 TO …     118 Improv…    1981 59 yea…
 2 2021-01 ANG MO… 5 ROOM  305   ANG MO… 13 TO …     123 Standa…    1977 55 yea…
 3 2021-01 ANG MO… 5 ROOM  520   ANG MO… 16 TO …     118 Improv…    1980 58 yea…
 4 2021-01 ANG MO… 5 ROOM  253   ANG MO… 07 TO …     128 Improv…    1996 74 yea…
 5 2021-01 ANG MO… 5 ROOM  423   ANG MO… 01 TO …     133 Improv…    1993 71 yea…
 6 2021-01 ANG MO… 5 ROOM  617   ANG MO… 13 TO …     133 Model A    1996 74 yea…
 7 2021-01 ANG MO… 5 ROOM  315A  ANG MO… 22 TO …     110 Improv…    2006 84 yea…
 8 2021-01 ANG MO… 5 ROOM  596C  ANG MO… 13 TO …     110 Improv…    2002 80 yea…
 9 2021-01 ANG MO… 5 ROOM  309A  ANG MO… 16 TO …     110 Improv…    2006 84 yea…
10 2021-01 ANG MO… 5 ROOM  588C  ANG MO… 16 TO …     112 DBSS       2011 89 yea…
# … with 14,509 more rows, 3 more variables: resale_price <dbl>,
#   latitude <dbl>, longitude <dbl>, and abbreviated variable names ¹​flat_type,
#   ²​street_name, ³​storey_range, ⁴​floor_area_sqm, ⁵​flat_model,
#   ⁶​lease_commence_date, ⁷​remaining_lease
…
